%YAML 1.1
%TAG !u! tag:unity3d.com,2011:
--- !u!64 &6107269072536989491
MeshCollider:
  m_ObjectHideFlags: 0
  m_CorrespondingSourceObject: {fileID: 0}
  m_PrefabInstance: {fileID: 0}
  m_PrefabAsset: {fileID: 0}
  m_GameObject: {fileID: 1239743055031000687}
  m_Material: {fileID: 0}
  m_IsTrigger: 0
  m_Enabled: 1
  serializedVersion: 4
  m_Convex: 1
  m_CookingOptions: 30
  m_Mesh: {fileID: -365651651620976162, guid: b6c0b4aabad835373950f8273c93dc43, type: 3}
--- !u!1 &1590446801337572703
GameObject:
  m_ObjectHideFlags: 0
  m_CorrespondingSourceObject: {fileID: 0}
  m_PrefabInstance: {fileID: 0}
  m_PrefabAsset: {fileID: 0}
  serializedVersion: 6
  m_Component:
  - component: {fileID: 2761174103756561295}
  - component: {fileID: 861013608459053462}
  m_Layer: 0
  m_Name: sprite
  m_TagString: Untagged
  m_Icon: {fileID: 0}
  m_NavMeshLayer: 0
  m_StaticEditorFlags: 0
  m_IsActive: 1
--- !u!4 &2761174103756561295
Transform:
  m_ObjectHideFlags: 0
  m_CorrespondingSourceObject: {fileID: 0}
  m_PrefabInstance: {fileID: 0}
  m_PrefabAsset: {fileID: 0}
  m_GameObject: {fileID: 1590446801337572703}
  m_LocalRotation: {x: 0, y: 0, z: 0, w: 1}
  m_LocalPosition: {x: 0, y: 0, z: 0}
  m_LocalScale: {x: 1, y: 1, z: 1}
  m_Children: []
  m_Father: {fileID: 8092841422885075683}
  m_RootOrder: 1
  m_LocalEulerAnglesHint: {x: 0, y: 0, z: 0}
--- !u!212 &861013608459053462
SpriteRenderer:
  m_ObjectHideFlags: 0
  m_CorrespondingSourceObject: {fileID: 0}
  m_PrefabInstance: {fileID: 0}
  m_PrefabAsset: {fileID: 0}
  m_GameObject: {fileID: 1590446801337572703}
  m_Enabled: 1
  m_CastShadows: 0
  m_ReceiveShadows: 0
  m_DynamicOccludee: 1
  m_MotionVectors: 1
  m_LightProbeUsage: 1
  m_ReflectionProbeUsage: 1
  m_RayTracingMode: 0
  m_RayTraceProcedural: 0
  m_RenderingLayerMask: 1
  m_RendererPriority: 0
  m_Materials:
  - {fileID: 10754, guid: 0000000000000000f000000000000000, type: 0}
  m_StaticBatchInfo:
    firstSubMesh: 0
    subMeshCount: 0
  m_StaticBatchRoot: {fileID: 0}
  m_ProbeAnchor: {fileID: 0}
  m_LightProbeVolumeOverride: {fileID: 0}
  m_ScaleInLightmap: 1
  m_ReceiveGI: 1
  m_PreserveUVs: 0
  m_IgnoreNormalsForChartDetection: 0
  m_ImportantGI: 0
  m_StitchLightmapSeams: 1
  m_SelectedEditorRenderState: 0
  m_MinimumChartSize: 4
  m_AutoUVMaxDistance: 0.5
  m_AutoUVMaxAngle: 89
  m_LightmapParameters: {fileID: 0}
  m_SortingLayerID: 0
  m_SortingLayer: 0
  m_SortingOrder: 0
  m_Sprite: {fileID: 21300000, guid: 75a8a12aae6ca79caa46f8f49866d3b0, type: 3}
  m_Color: {r: 1, g: 1, b: 1, a: 0.8}
  m_FlipX: 0
  m_FlipY: 0
  m_DrawMode: 0
  m_Size: {x: 10, y: 10}
  m_AdaptiveModeThreshold: 0.5
  m_SpriteTileMode: 0
  m_WasSpriteAssigned: 1
  m_MaskInteraction: 0
  m_SpriteSortPoint: 0
--- !u!1 &8092841422885075685
GameObject:
  m_ObjectHideFlags: 0
  m_CorrespondingSourceObject: {fileID: 0}
  m_PrefabInstance: {fileID: 0}
  m_PrefabAsset: {fileID: 0}
  serializedVersion: 6
  m_Component:
  - component: {fileID: 8092841422885075683}
  m_Layer: 0
  m_Name: "\u0433-\u043F\u043E\u043B\u043E\u0432\u0438\u043D\u0430"
  m_TagString: Untagged
  m_Icon: {fileID: 0}
  m_NavMeshLayer: 0
  m_StaticEditorFlags: 0
  m_IsActive: 1
--- !u!4 &8092841422885075683
Transform:
  m_ObjectHideFlags: 0
  m_CorrespondingSourceObject: {fileID: 0}
  m_PrefabInstance: {fileID: 0}
  m_PrefabAsset: {fileID: 0}
  m_GameObject: {fileID: 8092841422885075685}
  m_LocalRotation: {x: 0, y: 0, z: 0, w: 1}
  m_LocalPosition: {x: 0, y: 0, z: 0}
  m_LocalScale: {x: 0.52, y: 0.52, z: 0}
  m_Children:
  - {fileID: 5643136624598192893}
  - {fileID: 2761174103756561295}
  m_Father: {fileID: 0}
  m_RootOrder: 0
  m_LocalEulerAnglesHint: {x: 0, y: 0, z: 0}
--- !u!1001 &5772718781075928421
PrefabInstance:
  m_ObjectHideFlags: 0
  serializedVersion: 2
  m_Modification:
    m_TransformParent: {fileID: 8092841422885075683}
    m_Modifications:
    - target: {fileID: -2451972761346201635, guid: ebe92c154355aaa589ce7616ab97db88, type: 3}
      propertyPath: m_Convex
      value: 1
      objectReference: {fileID: 0}
    - target: {fileID: -2451972761346201635, guid: ebe92c154355aaa589ce7616ab97db88, type: 3}
      propertyPath: m_Enabled
      value: 0
      objectReference: {fileID: 0}
    - target: {fileID: 2183300213075978136, guid: ebe92c154355aaa589ce7616ab97db88, type: 3}
      propertyPath: m_RootOrder
      value: 0
      objectReference: {fileID: 0}
    - target: {fileID: 2183300213075978136, guid: ebe92c154355aaa589ce7616ab97db88, type: 3}
      propertyPath: m_LocalScale.x
      value: 0.019230768
      objectReference: {fileID: 0}
    - target: {fileID: 2183300213075978136, guid: ebe92c154355aaa589ce7616ab97db88, type: 3}
      propertyPath: m_LocalScale.y
      value: 0
      objectReference: {fileID: 0}
    - target: {fileID: 2183300213075978136, guid: ebe92c154355aaa589ce7616ab97db88, type: 3}
      propertyPath: m_LocalScale.z
      value: 0.019230766
      objectReference: {fileID: 0}
    - target: {fileID: 2183300213075978136, guid: ebe92c154355aaa589ce7616ab97db88, type: 3}
      propertyPath: m_LocalPosition.x
      value: -3.18
      objectReference: {fileID: 0}
    - target: {fileID: 2183300213075978136, guid: ebe92c154355aaa589ce7616ab97db88, type: 3}
      propertyPath: m_LocalPosition.y
      value: -0.63
      objectReference: {fileID: 0}
    - target: {fileID: 2183300213075978136, guid: ebe92c154355aaa589ce7616ab97db88, type: 3}
      propertyPath: m_LocalPosition.z
      value: 0
      objectReference: {fileID: 0}
    - target: {fileID: 2183300213075978136, guid: ebe92c154355aaa589ce7616ab97db88, type: 3}
      propertyPath: m_LocalRotation.w
      value: 0.6529911
      objectReference: {fileID: 0}
    - target: {fileID: 2183300213075978136, guid: ebe92c154355aaa589ce7616ab97db88, type: 3}
      propertyPath: m_LocalRotation.x
      value: -0.6529911
      objectReference: {fileID: 0}
    - target: {fileID: 2183300213075978136, guid: ebe92c154355aaa589ce7616ab97db88, type: 3}
      propertyPath: m_LocalRotation.y
      value: -0.27129817
      objectReference: {fileID: 0}
    - target: {fileID: 2183300213075978136, guid: ebe92c154355aaa589ce7616ab97db88, type: 3}
      propertyPath: m_LocalRotation.z
      value: 0.27129817
      objectReference: {fileID: 0}
    - target: {fileID: 2183300213075978136, guid: ebe92c154355aaa589ce7616ab97db88, type: 3}
      propertyPath: m_LocalEulerAnglesHint.x
      value: -44.877
      objectReference: {fileID: 0}
    - target: {fileID: 2183300213075978136, guid: ebe92c154355aaa589ce7616ab97db88, type: 3}
      propertyPath: m_LocalEulerAnglesHint.y
      value: -90
      objectReference: {fileID: 0}
    - target: {fileID: 2183300213075978136, guid: ebe92c154355aaa589ce7616ab97db88, type: 3}
      propertyPath: m_LocalEulerAnglesHint.z
      value: 90
      objectReference: {fileID: 0}
    - target: {fileID: 3306159946960898750, guid: ebe92c154355aaa589ce7616ab97db88, type: 3}
      propertyPath: m_Materials.Array.data[0]
      value: 
      objectReference: {fileID: 2100000, guid: d2f705d283b1e0feeab167bb1ca6d1cf, type: 2}
    - target: {fileID: 6917434734951580367, guid: ebe92c154355aaa589ce7616ab97db88, type: 3}
      propertyPath: m_Enabled
      value: 0
      objectReference: {fileID: 0}
    - target: {fileID: 8383435360469436080, guid: ebe92c154355aaa589ce7616ab97db88, type: 3}
      propertyPath: m_Name
      value: sqr0g
      objectReference: {fileID: 0}
    m_RemovedComponents: []
  m_SourcePrefab: {fileID: 100100000, guid: ebe92c154355aaa589ce7616ab97db88, type: 3}
--- !u!4 &5643136624598192893 stripped
Transform:
  m_CorrespondingSourceObject: {fileID: 2183300213075978136, guid: ebe92c154355aaa589ce7616ab97db88, type: 3}
  m_PrefabInstance: {fileID: 5772718781075928421}
  m_PrefabAsset: {fileID: 0}
--- !u!1 &1239743055031000687 stripped
GameObject:
  m_CorrespondingSourceObject: {fileID: 4695181385682447114, guid: ebe92c154355aaa589ce7616ab97db88, type: 3}
  m_PrefabInstance: {fileID: 5772718781075928421}
  m_PrefabAsset: {fileID: 0}
